{
    "introduction": {
        "en": "I'm a french 🇫🇷 enthusiast <b>Fullstack-developer</b> evolving in the JavaScript ecosystem. I like to <a href='https://stackoverflow.com/users/8583669/johannchopin' target='_blank'>help peoples</a>, contribute to <a href='/projects'>projects</a> and learn new stuffs concerning Web technologies.", 
        "fr": "Je suis un <b>développeur Fullstack</b> français 🇫🇷 passionné évoluant dans l'écosystème JavaScript. J'aime <a href='https://stackoverflow.com/users/8583669/johannchopin' target='_blank'>aider les gens</a>, contribuer à <a href='/projets'>des projets</a> et apprendre de nouvelles choses concernant les technologies du Web.",
        "de": "Ich bin ein französischer 🇫🇷 Enthusiast <b>Fullstack-Entwickler</b> der sich im JavaScript-Ökosystem entwickelt. Ich möchte <a href='https://stackoverflow.com/users/8583669/johannchopin' target='_blank'>Menschen helfen</a>, zu <a href='/projects'>projects</a> beitragen und neue Dinge über Web-Technologien lernen."
    },
    "swipe_indication": {
        "en": "Swipe to the right to browse my CV",
        "fr": "Balayez vers la droite pour parcourir mon CV",
        "de": "Swipen Sie nach rechts, um meinen Lebenslauf einzusehen"
    },
    "hey": {
        "en": "Hi there, I'm Johann",
        "fr": "Salut, je suis Johann",
        "de": "Hallo, ich bin Johann"
    }
}